{
  "cviceni": {
    "version": {
      "global": "<%= version %>",
      "content": 4
    },
    "katalog": [
      "test",
      "public"
    ],
    "language": "cs",
    "slug": "proc-sedeli-ve-skole",
    "nazev": "Proč seděli ve škole?",
    "autor": [
      "Michal Kurz"
    ],
    "klicovaSlova": [
      "škola",
      "propaganda",
      "každodennost",
      "příčiny a důsledky",
      "analýza fotografie"
    ],
    "anotace": {
      "ucitel": "Cvičení pracuje s historickou fotografií zachycující výuku ve večerním kurzu ruštiny v obci Líbeznice u Prahy roku 1949. Žáci označují a popisují jednotlivé prvky na fotografii, formulují hypotézy ohledně významu situace zachycené na snímku a následně je korigují za pomoci kontextualizujícího textu dobové popisky. Práce s oběma prameny vede žáky k otázkám souvisejícím s odrazem zahraničně-politické orientace poúnorového Československa ve sféře každodenního života.",
      "verejna": "Učitel stojí před tabulí a žáci bedlivě poslouchají jeho výklad. Všední den ve škole – nebo ne? Jaká látka se to dnes vlastně probírá? Prohlédněte si fotografii, pečlivě ji popište a pátrejte po tom, co přivedlo postavy na snímku do školních lavic."
    },
    "trvani": 25,
    "funkce": [
      "lupa",
      "text",
      "svg",
      "kresleni"
    ],
    "pdf": {
      "doporucenyPostup": "proc-sedeli-ve-skole.pdf"
    },
    "uvodniObrazek": "proc-sedeli-ve-skole/pic-00-1024h.jpg",
    "id": 42
  },
  "slajd": [
    {
      "zadani": {
        "hlavni": "Prohlédněte si fotografii.",
        "rozsirujici": ""
      },
      "napoveda": {
        "aktivity": [
          "lupa"
        ],
        "text": "Při kliknutí levým tlačítkem do obrazu lupa přiblíží část obrazu ve výřezu."
      },
      "prameny": [
        "proc-sedeli-ve-skole/pic-00-1024h.jpg"
      ]
    },
    {
      "class": [
        "half-slide-previous"
      ],
      "zadani": {
        "hlavni": "Označte důležité prvky na fotografii a popište je.",
        "rozsirujici": ""
      },
      "napoveda": {
        "aktivity": [
          "svg"
        ],
        "text": "Tahem myši levým tlačítkem kreslíte do obrazu. Nakliknutím na nakreslený tvar pravým tlačítkem otevřete menu s nabídkou úkonů: změnit barvu tvaru, (T) doplnit textový komentář, (X) smazat nakliknutý objekt."
      },
      "svg": {
        "soubory": [
          {
            "id": "svg-1",
            "soubor": "proc-sedeli-ve-skole/pic-00-1024h.jpg",
            "funkce": [
              "text",
              "kresleni"
            ]
          }
        ]
      }
    },
    {
      "class": [
        "half-slide-active"
      ],
      "zadani": {
        "hlavni": "Kdo jsou lidé na snímku a co dělají?",
        "rozsirujici": ""
      },
      "napoveda": {
        "aktivity": [
          "text"
        ],
        "text": "Do boxu pro text zapisujete odpověď na otázku, nebo jiný komentář (dle zadání)."
      },
      "uzivatelskyText": {
        "otazky": [
          {
            "id": "text-1",
            "zadani": "",
            "instrukce": "Myslím si, že…",
            "maxDelka": 400
          }
        ]
      }
    },
    {
      "class": [
        "half-slide-previous"
      ],
      "zadani": {
        "hlavni": "Přečtěte si dobový popisek. Označte na fotografii důležité prvky zmíněné v textu a popište je.",
        "rozsirujici": ""
      },
      "napoveda": {
        "aktivity": [
          "svg"
        ],
        "text": "Tahem myši levým tlačítkem kreslíte do obrazu. Nakliknutím na nakreslený tvar pravým tlačítkem otevřete menu s nabídkou úkonů: změnit barvu tvaru, (T) doplnit textový komentář, (X) smazat nakliknutý objekt."
      },
      "popisky": [
        "„Tak jako ve městech, v závodech tak i na venkově probíhají kursy ruštiny uspořádané Svazem československo-sovětského přátelství. O ruštinu je velký zájem, neboť její znalost usnadní nám poučovat se ze sovětské literatury a novin o velké zemi socialismu, která je nám příkladem. Přinášíme snímek z večerního kursu ruštiny v Líbeznicích u Prahy, který vede mladý učitel Václav Vacek. Večerní kursy jsou hojně navštěvovány a jsou velmi oblíbeny.“ Foto František Kocian, 16. prosince 1949. Zdroj: ČTK"
      ],
      "svg": {
        "soubory": [
          {
            "id": "svg-2",
            "soubor": "proc-sedeli-ve-skole/pic-00-1024h.jpg",
            "duplikovat": ["svg-1"],
            "funkce": [
              "text",
              "kresleni"
            ]
          }
        ]
      }
    },
    {
      "class": [
        "half-slide-active"
      ],
      "zadani": {
        "hlavni": "Zodpovězte otázky.",
        "rozsirujici": ""
      },
      "napoveda": {
        "aktivity": [
          "text"
        ],
        "text": "Do boxu pro text zapisujete odpověď na otázku, nebo jiný komentář (dle zadání)."
      },
      "uzivatelskyText": {
        "otazky": [
          {
            "id": "text-2",
            "zadani": "Proč dospělí seděli ve škole?",
            "instrukce": "Myslím si, že…",
            "maxDelka": 400
          },
          {
            "id": "text-3",
            "zadani": "Co byste se o situaci nebo fotografii chtěli ještě dozvědět?",
            "instrukce": "Myslím si, že…",
            "maxDelka": 400
          }
        ]
      }
    }
  ]
}
